<?xml version="1.0" encoding="UTF-8"?>
<svg width="116px" height="18px" viewBox="0 0 116 18" version="1.1" xmlns="http://www.w3.org/2000/svg" xmlns:xlink="http://www.w3.org/1999/xlink">
    <!-- Generator: Sketch 48.2 (47327) - http://www.bohemiancoding.com/sketch -->
    <title>wave-1</title>
    <desc>Created with Sketch.</desc>
    <defs></defs>
    <g id="Artboard-Copy" stroke="none" stroke-width="1" fill="none" fill-rule="evenodd" transform="translate(-662.000000, -3334.000000)" opacity="0.149999991">
        <path d="M763.075193,3342.85667 C762.677032,3342.00186 761.980233,3341.322 761.115883,3340.945 C759.158385,3340.09121 756.879383,3340.98594 756.02559,3342.94344 L755.939917,3343.13986 C754.963453,3345.37861 753.140917,3347.14011 750.870218,3348.03977 C746.122358,3349.92091 740.748497,3347.59697 738.867362,3342.84911 C738.535175,3342.01069 737.900711,3341.32729 737.089238,3340.93383 C735.298326,3340.06548 733.142568,3340.81336 732.274216,3342.60428 L732.056684,3343.05292 C731.027508,3345.17552 729.317135,3346.89232 727.198406,3347.92945 C721.961186,3350.49309 715.637339,3348.32572 713.073699,3343.0885 L712.944056,3342.82366 C712.517636,3341.95253 711.798211,3341.25928 710.911885,3340.86542 C708.827623,3339.93924 706.387173,3340.87805 705.460988,3342.96231 C704.49495,3345.13626 702.794666,3346.90089 700.658092,3347.94699 C695.633115,3350.4073 689.565093,3348.32823 687.104786,3343.30325 L686.725311,3342.5282 C686.33555,3341.73215 685.658592,3341.11337 684.830807,3340.79653 C683.023429,3340.10474 680.99745,3341.00909 680.305655,3342.81647 C679.422446,3345.12394 677.611214,3346.95471 675.313357,3347.86262 C670.786488,3349.65125 665.666765,3347.43147 663.878135,3342.9046 L662.551104,3339.546 C661.94226,3338.00507 662.697867,3336.26233 664.2388,3335.65348 C665.779733,3335.04464 667.522472,3335.80025 668.131317,3337.34118 L669.458348,3340.69978 C670.029289,3342.14479 671.663534,3342.85335 673.108537,3342.28241 C673.842027,3341.9926 674.420182,3341.40821 674.702108,3340.67165 C676.578455,3335.76952 682.073497,3333.31664 686.975629,3335.19298 C689.220822,3336.05236 691.056925,3337.73065 692.114071,3339.88978 L692.493546,3340.66483 C693.496693,3342.71368 695.970824,3343.56138 698.019671,3342.55824 C698.890822,3342.13171 699.584083,3341.4122 699.977968,3340.52582 C702.249791,3335.41336 708.235927,3333.11058 713.348378,3335.3824 C715.522431,3336.34849 717.287094,3338.04895 718.333053,3340.18572 L718.462696,3340.45057 C719.569445,3342.71152 722.299511,3343.6472 724.560469,3342.54045 C725.475145,3342.09271 726.21353,3341.35155 726.657836,3340.4352 L726.875368,3339.98656 C729.189443,3335.21395 734.934339,3333.22091 739.706953,3335.53498 C741.869453,3336.5835 743.56024,3338.40471 744.445489,3340.63902 C745.106023,3342.30616 746.992981,3343.12218 748.660126,3342.46165 C749.457451,3342.14574 750.097409,3341.52722 750.440281,3340.74111 L750.525955,3340.54469 C752.704541,3335.54982 758.519771,3333.26678 763.514634,3335.44537 C765.72016,3336.40734 767.498152,3338.1421 768.514121,3340.32328 L768.696776,3340.71542 L768.737955,3340.82566 C769.646245,3343.2572 770.523637,3344.75525 771.117859,3345.29334 C771.27333,3345.16732 771.48788,3344.95594 771.744929,3344.64358 C772.797739,3343.36422 774.688335,3343.18056 775.967693,3344.23337 C777.24705,3345.28619 777.430703,3347.17678 776.377893,3348.45614 C774.080858,3351.24746 771.170061,3352.28016 768.336454,3350.65171 C766.229967,3349.44113 764.620451,3346.91522 763.159386,3343.03742 L763.075193,3342.85667 Z" id="wave-1" fill="#4A4A4A" fill-rule="nonzero"></path>
    </g>
</svg>