<?xml version="1.0" encoding="UTF-8"?>
<svg width="112px" height="22px" viewBox="0 0 112 22" version="1.1" xmlns="http://www.w3.org/2000/svg" xmlns:xlink="http://www.w3.org/1999/xlink">
    <!-- Generator: Sketch 48.2 (47327) - http://www.bohemiancoding.com/sketch -->
    <title>wave-2</title>
    <desc>Created with Sketch.</desc>
    <defs>
        <polygon id="path-1" points="0 111.362017 0 0 21.4901293 0 21.4901293 111.362017"></polygon>
    </defs>
    <g id="Artboard-Copy" stroke="none" stroke-width="1" fill="none" fill-rule="evenodd" transform="translate(-662.000000, -3371.000000)" opacity="0.149999991">
        <g id="wave-2" transform="translate(718.061411, 3382.507812) rotate(-270.000000) translate(-718.061411, -3382.507812) translate(707.061411, 3326.507812)">
            <mask id="mask-2" fill="white">
                <use xlink:href="#path-1"></use>
            </mask>
            <g id="Clip-2"></g>
            <path d="M8.47296427,59.9499349 C8.41409636,59.8395576 8.35522846,59.7285113 8.29769847,59.6167961 C7.92709826,59.7586142 7.5558291,59.9004323 7.18455994,60.0415815 C7.23272459,60.1586484 7.28022028,60.2763842 7.32704702,60.393451 C7.70835049,60.2456123 8.09166081,60.0984425 8.47296427,59.9499349 M9.96138567,84.1633736 C12.5609387,87.8633551 16.2796509,90.349855 18.4878662,94.1541932 C17.6135441,96.4286349 16.1251227,97.9578625 13.6941459,98.6462156 C11.5300815,99.258308 9.6175436,100.422287 7.86421664,102.039816 C8.81948215,103.325545 10.0369774,104.13431 11.277886,104.787877 C12.9609729,105.675578 14.309583,106.955955 15.6795997,108.190843 C16.2836646,108.734033 16.4870265,109.718733 16.881709,110.524822 C15.6682275,111.059985 15.3391024,109.610362 14.2895144,109.843158 C14.4841799,110.271288 14.6527561,110.643895 14.9785365,111.362351 C14.1436826,110.765645 13.5657068,110.411769 13.0552953,109.978287 C10.5701333,107.865732 7.98529721,105.914395 5.02919196,104.476814 C4.2973569,104.120931 3.70667101,103.427226 3.13204,102.813795 C2.44569378,102.083298 1.78476778,101.313333 1.22953642,100.483831 C0.765951688,99.7928017 0.470274268,98.9887197 0,98.0334542 C0.641526349,97.5437803 1.33924479,97.0119623 2.12459612,96.4139179 C2.22895286,96.8460618 2.24099402,97.1631458 2.37679157,97.4126654 C2.70190294,98.0120477 3.24776895,98.3318074 3.82440681,97.849492 C6.10955176,95.9349473 9.10378736,95.3817228 11.6779202,93.6892706 C11.4912822,93.3889105 11.3267196,93.0999226 11.13473,92.8316723 C11.0571314,92.7233018 10.8062739,92.6156003 10.8209908,92.5801458 C11.2558106,91.4683451 10.2497046,91.0475734 9.73527941,90.4756182 C8.34251835,88.9303358 6.87015183,87.4559624 5.39444054,85.9882786 C4.1822969,84.7821555 3.31198848,83.4335454 3.24308628,81.6641635 C3.23104511,81.3531002 3.11464722,81.0420368 3.02099373,80.7390009 C2.64035923,79.5148161 2.71126829,78.985674 3.83444112,78.3187274 C5.15829997,77.5320381 6.60056359,76.9426902 8.00269,76.2911295 C8.47831589,76.0697059 8.9840447,75.9151777 9.47238071,75.7318844 C7.98931093,76.9714552 5.99047805,77.5507688 4.84723662,79.3944045 C5.21716788,79.3141301 5.62322261,79.3074406 5.9510098,79.1422091 C8.0903229,78.0638561 10.2122432,76.9527245 12.3375083,75.8496202 C13.3215388,75.3385398 13.2860843,75.1833426 12.6157929,74.2407872 C11.0223458,71.9944416 8.72114599,70.5260888 6.72097521,68.7232592 C5.1636516,67.3211328 3.7053331,65.8340493 3.93010146,63.4606025 C4.0070311,62.6458172 3.30663685,61.7072756 4.123429,61.0349774 C4.72414919,60.5406208 5.48608716,60.2188542 6.21524641,59.9111356 C8.1291222,59.1050467 10.0657424,58.3511362 11.9903215,57.5684606 C12.1782974,57.4928689 12.341522,57.3550645 12.5562561,57.2212738 C12.6117792,56.2285469 11.8879716,55.6820119 11.3568225,55.0572094 C9.80685743,53.238994 8.21140347,51.4595778 6.67615533,49.6279833 C6.20119839,49.0620487 5.83996353,48.3924263 5.47070123,47.7455483 C4.61444083,46.2524443 5.05528114,44.6355838 5.08739091,43.0635432 C5.09274254,42.8401128 5.30346287,42.5330631 5.50548681,42.4146584 C6.69221021,41.7202847 7.58325619,40.6084841 9.26232933,40.6466144 C10.1921746,40.6680209 11.1996185,39.719445 12.068589,39.0692222 C12.4893607,38.7541451 12.671985,38.1199773 13.0051238,37.5587253 C12.8091205,37.291144 12.6198066,36.9720532 12.3729628,36.7098234 C11.3528088,35.6267878 10.3232895,34.5524486 9.27905316,33.4928263 C9.05829853,33.268058 8.78670343,33.0506481 8.49637764,32.9456224 C6.17577816,32.1007342 5.52020378,29.9306493 4.51008409,28.0288146 C3.84514437,26.7778717 4.69070152,25.6714227 4.84857453,24.5107885 C4.8907186,24.2050768 5.68610424,23.9515434 6.16975757,23.7655744 C8.30572591,22.9501201 10.2985382,21.9132423 11.9876456,20.194032 C11.8284347,19.8655758 11.7354502,19.4862792 11.5039923,19.2300701 C10.186154,17.765062 8.87567424,16.2893507 7.48157527,14.8979276 C6.41258767,13.8322847 5.36233077,12.8429026 5.68342842,11.1103132 C5.74898586,10.753761 5.5242175,10.2246188 5.25396032,9.95101689 C4.69806001,9.38508228 4.73083873,8.71211512 4.62648199,8.02978261 C4.50740828,7.25245872 4.69939791,6.85777619 5.52956913,6.66846236 C6.17845397,6.5199547 6.8159666,6.17611263 7.37521167,5.79815394 C8.77867599,4.84690215 10.14401,3.83945827 11.5053302,2.82866962 C12.2739577,2.2600592 13.0472679,1.88477632 13.9028593,2.45271779 C14.080801,2.03462189 14.1289656,1.55698913 14.381161,1.39577135 C15.4133562,0.729493726 16.3773181,-0.197675741 17.9848132,0.0371269159 C17.298467,0.530814554 16.7720006,0.908773248 16.2401827,1.29141462 C16.5773352,2.04064247 16.8516061,2.650728 17.140594,3.29091645 C17.7794445,3.4755476 18.4390326,3.66619933 19.138089,3.86889222 C19.4203873,4.96597586 20.0686032,5.73192755 21.4901293,5.97877137 C20.9101466,6.34134413 20.5676425,6.56076086 20.2204556,6.77081224 C18.0369916,8.0846368 15.7685705,9.27738078 13.692808,10.740382 C11.5969768,12.2174311 11.8779373,13.8128851 14.152379,14.9414096 C14.7925674,15.2578245 15.300972,15.8511862 15.8495138,16.3401912 C17.4048306,17.7242559 18.9253618,19.1417682 20.0465277,20.9205154 C21.3657039,23.0170155 21.393131,23.799691 19.4116909,25.4172204 C18.0236125,26.5504275 16.3525668,27.3351099 14.8146429,28.2863617 C14.1784682,28.6797063 13.5315902,29.0650235 12.9388974,29.518574 C12.2070624,30.077819 12.2137519,30.5942511 12.9141462,31.198985 C14.4841799,32.5522778 16.1177642,33.8353305 17.6242473,35.2541807 C18.6979176,36.2669763 19.6324455,37.4309552 20.5796836,38.5681761 C21.5724105,39.7582443 20.4773337,41.8293241 19.3588436,42.5745382 C17.7627207,43.6395121 16.091675,44.5927708 14.4781593,45.6336623 C13.8546947,46.0357033 13.247285,46.4932675 12.7308529,47.0210718 C11.9354673,47.8338502 11.8752615,48.2773663 12.5703041,49.1115513 C13.7958268,50.5852557 15.1350716,51.9646377 16.3906972,53.4155977 C17.5734069,54.7816006 18.807626,56.1195075 19.8358074,57.5972256 C20.8639888,59.072268 20.5388775,60.6790941 19.0832348,61.815646 C18.0369916,62.6324382 16.8803711,63.3174465 15.7337849,63.9937584 C14.6320186,64.6439812 13.4747291,65.1958678 12.3508874,65.8119739 C11.148778,66.471562 11.0772,66.9491947 12.1354843,67.8154894 C14.2794801,69.5701543 16.4622752,71.2766545 18.6209879,73.0119197 C19.0350701,73.3437207 19.4571797,73.6822111 19.7970081,74.0842521 C20.9650008,75.4569446 20.8981055,75.9700319 19.7863048,77.3975785 C18.7373858,78.7435128 17.457009,79.6385725 15.8796168,80.3255877 C14.1303035,81.0881946 12.5294979,82.20334 10.8885551,83.2040944 C10.5467199,83.4134768 10.3072346,83.7961181 9.96138567,84.1633736" id="Fill-1" fill="#4A4A4A" mask="url(#mask-2)"></path>
        </g>
    </g>
</svg>