<?xml version="1.0" encoding="UTF-8"?>
<svg width="37px" height="38px" viewBox="0 0 37 38" version="1.1" xmlns="http://www.w3.org/2000/svg" xmlns:xlink="http://www.w3.org/1999/xlink">
    <!-- Generator: Sketch 48.2 (47327) - http://www.bohemiancoding.com/sketch -->
    <title>dot-2</title>
    <desc>Created with Sketch.</desc>
    <defs>
        <polygon id="path-1" points="5.92632841 0.00990201656 5.92632841 6.99909008 0.0780766096 6.99909008 0.0780766096 0.00990201656 5.92632841 0.00990201656"></polygon>
    </defs>
    <g id="Artboard-Copy" stroke="none" stroke-width="1" fill="none" fill-rule="evenodd" transform="translate(-340.000000, -3348.000000)">
        <g id="dot-2" transform="translate(340.393872, 3348.334658)">
            <path d="M18.5046799,12.1102514 C18.5333885,12.316794 18.5624959,12.5221404 18.592002,12.7286829 C18.1605752,11.5839267 18.1486133,10.4686765 18.86593,9.42559659 C19.0413716,9.17040885 19.2718381,8.95230308 19.4883489,8.7290138 C19.5668989,8.64767271 19.6928978,8.53164203 19.7718465,8.54878746 C20.031819,8.60580597 20.1781533,8.46465525 20.3260824,8.3075553 C20.5382072,8.08386729 20.7794394,8.03243101 21.0721078,8.13330992 C21.2172459,8.18315127 21.3883014,8.23658121 21.5294521,8.20468274 C22.292623,8.03043736 22.7272396,8.56633162 23.171027,8.9965622 C23.3791645,9.19752255 23.5466315,9.38213493 23.8369075,9.39290066 C24.4007129,9.41203975 24.8149943,9.76531528 25.2496109,10.0464205 C25.4226601,10.1580652 25.5438743,10.4172402 25.6000953,10.6321561 C25.9278521,11.9045063 25.3437114,13.5807708 23.8947235,14.2598094 C24.0948864,14.0197734 24.247999,13.8359585 24.4007129,13.652941 C24.384365,13.6290172 24.368017,13.6054921 24.3508716,13.5811695 C24.2013475,13.6716814 24.0442476,13.7510288 23.9038943,13.8546989 C23.4389741,14.1992023 22.9110545,14.3515175 22.3556224,14.4982504 C21.714862,14.667711 21.188936,14.6059078 20.6773643,14.1956137 C20.5497704,14.0939374 20.3567847,14.03971 20.1893177,14.0285455 C19.6673791,13.9950521 19.2622685,13.7621933 18.8894552,13.3203995 C18.9923277,13.3092351 19.060112,13.3016592 19.1829211,13.288501 C19.0381818,12.8391314 18.8436011,12.4384069 18.4955091,12.1210171 C18.5070723,11.941987 18.5170406,11.7653492 18.5274076,11.5875153 C18.4931167,11.5883127 18.4588259,11.5895089 18.4253325,11.5907051 C18.4516487,11.7637543 18.4783637,11.9372022 18.5046799,12.1102514" id="Fill-1" fill="#87D7E2"></path>
            <g id="Group-5" transform="translate(19.677232, 29.463317)" fill="#87D7E2">
                <path d="M6.05288926,1.61392243 C6.58479621,1.85595205 7.078425,2.09359564 7.12746889,2.78539366 C7.1430194,3.00190451 7.3292267,3.20246613 7.41654876,3.41937571 C7.53257943,3.70725938 7.65778092,3.99673797 7.72636263,4.29738103 C7.88226639,4.98838159 7.68130604,5.47921927 7.08081738,5.84724784 C6.8160601,6.00913256 6.63065026,6.18856144 6.53973962,6.494388 C6.49348684,6.64750065 6.35432978,6.78865137 6.22514098,6.89590997 C6.03175652,7.05739596 5.82003044,7.20213526 5.59793736,7.32015959 C5.44921075,7.39870957 5.27177553,7.4314055 5.10271365,7.46170904 C4.90653807,7.49759482 4.85270941,7.3500644 4.77256451,7.20452764 C4.73508381,7.13594594 4.57479401,7.12318655 4.46633921,7.10643986 C3.55842907,6.96728279 2.83034655,6.51871059 2.23145281,5.83568464 C2.10545386,5.69174281 1.94636026,5.5753134 1.82434862,5.42818172 C1.67243216,5.24596172 1.46907943,5.09005796 1.49699059,4.80097809 C1.51413602,4.63231495 1.5165284,4.45647464 1.30400486,4.35679193 C1.25256858,4.33326681 1.25655589,4.14865443 1.26811908,4.04139583 C1.29004928,3.8380431 1.33590333,3.63788021 1.37178911,3.43532494 C1.3303211,3.41578713 1.29004928,3.39585059 1.24858127,3.37631277 C1.17561353,3.46164118 1.06317143,3.53580511 1.03446281,3.6338929 C0.884141278,4.1482557 0.951925522,4.65783372 1.11301278,5.15983586 C1.20033484,5.42858045 1.28606197,5.69772377 1.32633379,5.98281633 C0.960697601,5.72922351 0.824331651,5.3619924 0.789243336,4.95528693 C0.76731314,4.7040865 0.794426838,4.44929749 0.780471258,4.19729959 C0.703516204,2.78379874 1.35065637,1.70443433 2.45115351,0.932491409 C3.1050721,0.473950934 3.8534899,0.0548848131 4.74066604,0.272990587 C4.96714516,0.328414175 5.19322555,0.389818725 5.41651482,0.455210584 C5.72353758,0.545323756 5.92609285,0.727543753 5.95958624,1.06726244 C5.97673167,1.23791924 6.01620602,1.40618366 6.05288926,1.61392243" id="Fill-3"></path>
            </g>
            <path d="M27.3943443,5.27185786 C27.3811862,5.3731355 27.368028,5.47441313 27.3405156,5.67816459 C27.088119,4.89904452 27.2073395,3.81928138 27.5642036,3.30053255 C27.8373342,2.90299789 28.129604,2.51742516 28.3951587,2.11470701 C28.5391005,1.89500631 28.5929292,1.58917975 28.7791365,1.4268963 C29.6551482,0.660934337 30.6527728,0.365474779 31.8047062,0.743471622 C32.2453038,0.887812189 32.5008902,1.15336693 32.5535227,1.60831883 C32.5862186,1.891019 32.6029653,2.1753141 32.6332689,2.53457059 C33.0910119,2.81567584 33.3238707,3.34838025 33.510078,3.90700217 C33.7584873,4.64943901 33.5387866,5.28062994 33.041968,5.85041632 C32.8410077,6.08088275 32.677528,6.34364638 32.480555,6.57770139 C32.3206639,6.76749727 32.1667538,6.99876116 31.9562239,7.10442484 C31.1129082,7.52548461 30.221346,7.79821651 29.2679805,7.82174163 C28.6543338,7.83729213 28.3560831,7.73681196 27.9130931,7.35522654 C28.1004966,7.39310597 28.2635775,7.4258019 28.4792909,7.46966229 C28.2197171,7.07531748 27.9557573,6.76630108 27.7970624,6.4098357 C27.6355764,6.0465919 27.5789567,5.63789278 27.4752866,5.24873147 C27.4489704,5.25630736 27.421458,5.26388324 27.3943443,5.27185786" id="Fill-6" fill="#87D7E2"></path>
            <path d="M14.2969929,20.3052469 C13.3918739,19.9946356 12.3802937,20.063616 11.6896919,19.3315462 C10.7239658,18.3064091 10.1657426,17.1217798 10.5238029,15.6636211 C10.6306627,15.2270108 10.8986099,14.9502916 11.2933534,14.6986924 C11.837621,14.3525941 12.4428944,14.2433418 13.0254402,14.0431789 C13.4987337,13.8804967 13.9365402,13.9590467 14.3591949,14.2409494 C14.5218771,14.3498029 14.74716,14.4139986 14.9449305,14.4155935 C15.9154414,14.4227707 16.6247836,14.8362546 17.06259,15.7054878 C17.2025446,15.983802 17.3600433,16.2565339 17.4720866,16.5460125 C17.6953759,17.1205836 17.7157112,17.6389337 17.234443,18.1556889 C16.5406514,18.9005181 15.8723785,19.6597016 14.9317724,20.1002992 C14.732407,20.194001 14.5103139,20.2378614 14.2969929,20.3052469" id="Fill-8" fill="#87D7E2"></path>
            <path d="M28.9106379,17.185497 C29.1279463,16.5858058 29.3233244,15.9769438 29.5665502,15.3876196 C29.9533191,14.4482097 30.5390547,13.6662985 31.4306169,13.1312017 C31.6754376,12.9844688 31.9102901,12.8704318 32.1917941,12.8943556 C32.6339866,12.932235 33.079369,12.9573551 33.5131881,13.0414873 C33.9414251,13.1244233 33.9828931,13.2472324 33.8604827,13.698197 C33.8457296,13.7520257 33.8521093,13.8110378 33.849717,13.8485185 C34.2009988,14.035922 34.5295531,14.2324963 34.8760502,14.3884001 C35.1212696,14.499646 35.196231,14.6910368 35.2771734,14.9207058 C35.5638609,15.7269395 35.3860269,16.5439391 35.3525335,17.3557551 C35.3457551,17.5168423 35.227332,17.6775309 35.1431998,17.8290486 C35.0207895,18.0507429 34.8760502,18.2592792 34.7528423,18.4805748 C34.1479676,19.5687113 33.1906149,20.0519731 31.9820617,20.1193586 C31.4760722,20.1480672 31.0944868,19.912816 30.7276544,19.5523633 C31.0773414,19.6125717 31.3995159,19.668394 31.7220892,19.7242163 C31.7336523,19.6855394 31.746013,19.6472612 31.7579749,19.6081856 C31.3225608,19.3840989 30.8480711,19.2110497 30.4613022,18.9215711 C30.0641663,18.6229217 29.7515613,18.2110327 29.3336914,17.8653331 C29.4345703,18.1348751 29.5366454,18.4044172 29.6411129,18.6815351 C29.3576152,18.4371131 29.3500393,18.4395055 29.2080912,18.0108698 C29.122364,17.752891 29.0665417,17.4853426 28.99796,17.2213828 C28.9688526,17.2098196 28.940144,17.1978576 28.9106379,17.185497" id="Fill-10" fill="#87D7E2"></path>
            <path d="M5.67288325,20.2959166 C5.95000119,20.4518203 6.3068653,20.5598764 6.52816092,20.7959251 C7.05129579,21.3537495 7.28574953,22.0535222 7.32004038,22.8246676 C7.34715408,23.4259537 7.10193461,23.9231711 6.78015881,24.3952684 C6.57242004,24.7014937 6.33238407,24.9865863 6.1246453,25.2924128 C5.85749563,25.684764 5.48827087,25.8621992 5.02654055,25.8442563 C4.34750191,25.8175414 3.66766582,25.7892315 2.98942464,25.7704911 C2.16604544,25.7473647 1.5360507,25.2393816 1.18636375,24.4662425 C0.923998853,23.8864879 0.798398636,23.2732398 0.926391238,22.6380616 C1.01490949,22.1990589 1.08827596,21.7445058 1.26571119,21.3389965 C1.66045473,20.4386622 2.35903117,19.8429583 3.29844105,19.5343407 C3.44557273,19.4860942 3.58353361,19.407943 3.72907037,19.3549118 C4.28450244,19.1527552 4.82318781,19.2181471 5.26857017,19.5897643 C5.46554321,19.7540414 5.54449192,20.0602667 5.67288325,20.2959166" id="Fill-14" fill="#87D7E2"></path>
            <path d="M9.47793186,31.8326354 C9.52936814,31.5778464 9.58399426,31.4458665 9.57761457,31.3170765 C9.5572793,30.9283139 9.48790013,30.541545 9.48590647,30.1535798 C9.48271663,29.556281 9.63224069,28.9936718 9.99269338,28.5008405 C10.0369525,28.4394359 10.06287,28.3640758 10.0931736,28.2938992 C10.0995532,28.2791461 10.0899837,28.2568172 10.0875913,28.2380768 C9.74189168,28.4155121 9.72075894,28.4310626 9.45679912,29.2891314 C9.3323951,29.6966343 9.2522502,30.1176941 9.14379541,30.5654688 C8.83158915,29.311859 9.4863052,28.0088066 10.6087325,27.5809684 C10.806503,27.5056083 10.9911154,27.3955586 11.1825062,27.3050467 C11.4644089,27.1714718 11.7363434,26.9936379 12.0329991,26.9246574 C12.2590795,26.872025 12.5425772,26.901531 12.7574931,26.9932391 C13.1661922,27.1678833 13.5445878,27.4142989 13.9807993,27.6551323 C13.8548004,28.3995628 14.507124,28.7811483 14.9497153,29.1467845 C15.4377618,29.5506988 15.6809877,30.0180114 15.7814678,30.5531082 C15.9321881,31.363728 15.7659173,32.1564049 15.1973271,32.7943742 C14.8544186,33.1787508 14.4736306,33.4439068 13.8851039,33.5264441 C12.9863646,33.6520443 12.2542947,33.4211791 11.5361805,32.960645 C11.4404851,32.8996392 11.3228595,32.8286651 11.2167971,32.8310575 C10.3890318,32.8497978 9.93288375,32.2672521 9.47793186,31.8326354" id="Fill-16" fill="#87D7E2"></path>
            <path d="M1.54227091,14.2191787 C1.29944382,13.9285039 1.03468654,13.6158989 0.775910216,13.2993067 C0.265933462,12.6756916 -0.0853484153,11.9982479 0.0183216051,11.1553309 C0.0773337706,10.6712716 0.0920868119,10.180434 0.174624097,9.70076075 C0.28387635,9.06199393 0.647518883,8.56437784 1.12001494,8.12896375 C1.41068973,7.86141535 1.58653003,7.45869719 2.11165856,7.57074056 C2.26796105,7.60423395 2.46373789,7.42360888 2.64715408,7.35901448 C3.47372313,7.0671435 4.51879668,7.57751899 4.82781309,8.40767661 C4.98451431,8.82833766 5.1898607,9.21590404 5.50685172,9.55442653 C6.23652918,10.3351415 6.20303578,11.6852442 5.43468144,12.4177127 C5.13244346,12.7051977 4.93228057,13.1115044 4.48689822,13.2542501 C4.38641804,13.2861485 4.33019699,13.4667736 4.26002036,13.583203 C3.78114462,14.3766774 3.23209224,14.5927895 2.35049833,14.3547472 C2.11245602,14.2901528 1.86245178,14.2714125 1.54227091,14.2191787" id="Fill-18" fill="#87D7E2"></path>
            <g id="Group-22" transform="translate(30.489820, 24.369760)">
                <mask id="mask-2" fill="white">
                    <use xlink:href="#path-1"></use>
                </mask>
                <g id="Clip-21"></g>
                <path d="M4.72263972,6.6868256 C4.55198292,6.46433379 4.37773754,6.43363151 4.25851702,6.65771825 C4.04679094,7.05565164 3.7321923,7.04767702 3.38011296,6.92407046 C2.54756295,6.63100328 1.72976598,6.3132148 1.15519483,5.58872085 C1.1069484,5.52891122 1.04674004,5.44916505 0.98214564,5.43720312 C0.52599755,5.3554633 0.515630548,5.02371924 0.489314312,4.66087416 C0.472168886,4.43559123 0.373283635,4.21030831 0.280379348,3.99818349 C-0.0701050673,3.18796241 0.0415395701,2.462671 0.563079519,1.74455674 C0.943070017,1.22062441 1.4534455,0.879310804 1.96342226,0.524041618 C2.03957985,0.470611685 2.16996484,0.401631248 2.22658462,0.431536062 C2.49612667,0.574680436 2.71582737,0.366941664 2.95347095,0.363751817 C3.55435834,0.353783546 4.0786894,0.016457249 4.68077298,0.0100775555 C5.18835735,0.00489405443 5.48581057,0.112551383 5.62616382,0.594218247 C5.74299196,0.996537673 5.76213104,1.43514161 5.76532089,1.85819503 C5.76771327,2.10620562 5.75296023,2.32510886 5.83629498,2.58149279 C5.9451485,2.91562924 5.94315485,3.30997405 5.89450968,3.66564197 C5.83310513,4.12378371 5.61659428,4.5643813 5.57911358,5.02172558 C5.52408873,5.69079594 5.16642716,6.16727931 4.72263972,6.6868256" id="Fill-20" fill="#87D7E2" mask="url(#mask-2)"></path>
            </g>
            <path d="M10.2629531,3.52505789 C9.81836825,4.09962904 9.72267285,4.76192098 9.76134974,5.50316163 C9.4092704,4.43057564 9.92801924,3.15663059 10.8674291,2.65582464 C11.1054714,2.52902823 11.3195899,2.35358666 11.5345058,2.18651843 C12.024546,1.80413555 12.430454,1.79775586 12.9715318,2.08763318 C13.3431489,2.28699861 13.7454684,2.4588516 14.1553637,2.54617366 C14.4783357,2.61555283 14.7052135,2.76108959 14.8459655,3.02185956 C15.1964499,3.67059465 15.5461369,4.32212085 15.8368117,4.99836837 C15.934102,5.22524622 15.8778809,5.53266771 15.8427926,5.79702626 C15.788964,6.20173807 15.6908762,6.59967146 15.6147186,7.00119342 C15.4440618,7.89714164 14.5524996,8.57538281 13.5811913,8.48566837 C13.1617264,8.44778894 12.7518311,8.2934801 12.3383472,8.1862215 C12.264582,8.16748115 12.1936079,8.0905261 12.1258237,8.09650706 C11.5181579,8.15193065 11.1445471,7.68820667 10.6911901,7.42663923 C10.4818564,7.30662125 10.3143894,7.0203325 10.2434153,6.77511303 C10.1214037,6.35524945 10.06917,5.91026582 10.0237146,5.47206062 C9.95553167,4.80936995 10.0308918,4.15824248 10.2629531,3.52505789" id="Fill-23" fill="#87D7E2"></path>
            <path d="M17.7882004,23.7731287 C17.7858081,22.7511815 18.1713808,21.9900043 18.8388562,21.3620033 C18.9237859,21.2810609 19.0605506,21.2407891 19.1805686,21.2144728 C19.4812116,21.1478848 19.7898293,21.1143914 20.0892762,21.0426198 C20.9935977,20.8257103 21.7779013,21.0107214 22.4342123,21.6929499 C22.5370848,21.7998097 22.6826216,21.9162391 22.819785,21.9321884 C23.7013789,22.0350609 23.8385423,22.7085173 23.9701235,23.3899483 C24.0323255,23.7125216 24.0853567,24.037886 24.126426,24.3636491 C24.1587232,24.6132546 24.2121531,24.8736258 24.1742737,25.1156555 C24.0602367,25.8381557 23.8253842,26.2428676 22.9661192,26.4980553 C22.2141128,26.7217433 21.4920113,26.852527 20.6945496,26.6886486 C20.1626426,26.5793964 19.7017098,26.3892018 19.3253079,26.0423059 C18.9002608,25.6499548 18.5497764,25.1778575 18.150248,24.7560002 C17.8591745,24.4485787 17.7758398,24.0869299 17.7882004,23.7731287" id="Fill-25" fill="#87D7E2"></path>
            <path d="M3.08890799,17.8762583 C3.16227447,17.7430822 3.23444475,17.6091086 3.33492492,17.4268886 C3.36602593,17.5233815 3.40510155,17.5804 3.39034851,17.6087099 C3.33093762,17.7219495 3.25478002,17.826417 3.18380593,17.9340743 C3.15270493,17.9145365 3.12080646,17.8953974 3.08890799,17.8762583" id="Fill-29" fill="#87D7E2"></path>
            <path d="M2.47211124,18.5499141 C2.34690976,18.5834075 2.22130954,18.6172996 2.09610805,18.6511917 C2.0889309,18.6284641 2.08175374,18.6069326 2.07497532,18.5850024 C2.19100599,18.5383509 2.30623921,18.4916994 2.42147242,18.4446491 C2.43861785,18.4797374 2.45496582,18.5148258 2.47211124,18.5499141" id="Fill-31" fill="#87D7E2"></path>
        </g>
    </g>
</svg>