<?xml version="1.0" encoding="UTF-8"?>
<svg width="31px" height="12px" viewBox="0 0 31 12" version="1.1" xmlns="http://www.w3.org/2000/svg" xmlns:xlink="http://www.w3.org/1999/xlink">
    <!-- Generator: Sketch 48.2 (47327) - http://www.bohemiancoding.com/sketch -->
    <title>line-1</title>
    <desc>Created with Sketch.</desc>
    <defs></defs>
    <g id="Artboard-Copy" stroke="none" stroke-width="1" fill="none" fill-rule="evenodd" transform="translate(-554.000000, -3303.000000)">
        <path d="M559.901155,3301.78858 C558.66664,3299.95657 559.151006,3297.47066 560.983018,3296.23614 C562.81503,3295.00163 565.300941,3295.48599 566.535456,3297.31801 L571.963328,3305.37293 C572.570371,3306.27377 573.146658,3307.19497 573.691194,3308.13492 L578.579738,3316.57327 C579.687136,3318.48481 579.035255,3320.93214 577.12372,3322.03954 C575.212186,3323.14693 572.764857,3322.49505 571.657459,3320.58352 L566.768915,3312.14516 C566.315135,3311.36187 565.834896,3310.59421 565.329027,3309.8435 L559.901155,3301.78858 Z" id="line-1" fill="#87D7E2" fill-rule="nonzero" transform="translate(569.168580, 3309.065973) rotate(-52.000000) translate(-569.168580, -3309.065973) "></path>
    </g>
</svg>