<?xml version="1.0" encoding="UTF-8"?>
<svg width="67px" height="15px" viewBox="0 0 67 15" version="1.1" xmlns="http://www.w3.org/2000/svg" xmlns:xlink="http://www.w3.org/1999/xlink">
    <!-- Generator: Sketch 48.2 (47327) - http://www.bohemiancoding.com/sketch -->
    <title>curve-1</title>
    <desc>Created with Sketch.</desc>
    <defs></defs>
    <g id="Artboard-Copy" stroke="none" stroke-width="1" fill="none" fill-rule="evenodd" transform="translate(-529.000000, -3089.000000)">
        <path d="M580.415181,3074.89033 C580.892842,3073.59487 582.330237,3072.93192 583.625692,3073.40958 C584.921148,3073.88724 585.584102,3075.32464 585.106442,3076.62009 C581.176333,3087.27888 575.490289,3092.17779 565.099131,3096.47328 C564.403669,3096.76077 564.35395,3096.78082 562.498449,3097.52595 C556.273006,3100.02595 553.541957,3101.50185 550.905686,3104.23084 C547.47821,3107.77885 545.318134,3112.99822 544.438987,3120.95705 C544.287393,3122.32941 543.051981,3123.31904 541.679616,3123.16745 C540.307252,3123.01585 539.317622,3121.78044 539.469216,3120.40808 C540.462301,3111.41778 543.049155,3105.16719 547.309593,3100.75692 C550.585717,3097.36558 553.78252,3095.63798 560.635185,3092.8861 C562.468056,3092.15006 562.516775,3092.1304 563.189006,3091.85252 C572.404456,3088.04304 577.037243,3084.05158 580.415181,3074.89033 Z" id="curve-1" fill="#ACE97F" fill-rule="nonzero" transform="translate(562.357687, 3098.218656) rotate(43.000000) translate(-562.357687, -3098.218656) "></path>
    </g>
</svg>