<?xml version="1.0" encoding="UTF-8"?>
<svg width="47px" height="45px" viewBox="0 0 47 45" version="1.1" xmlns="http://www.w3.org/2000/svg" xmlns:xlink="http://www.w3.org/1999/xlink">
    <!-- Generator: Sketch 48.2 (47327) - http://www.bohemiancoding.com/sketch -->
    <title>square-1</title>
    <desc>Created with Sketch.</desc>
    <defs></defs>
    <g id="Artboard-Copy" stroke="none" stroke-width="1" fill="none" fill-rule="evenodd" transform="translate(-823.000000, -3080.000000)">
        <polygon id="square-1" fill="#ACE97F" transform="translate(846.211168, 3102.942470) rotate(10.000000) translate(-846.211168, -3102.942470) " points="826 3083.81703 866.422335 3084.70659 865.53278 3121.17835 842.44461 3122.06791 826 3121.17835 826 3109.71317"></polygon>
    </g>
</svg>