<?xml version="1.0" encoding="UTF-8"?>
<svg width="66px" height="31px" viewBox="0 0 66 31" version="1.1" xmlns="http://www.w3.org/2000/svg" xmlns:xlink="http://www.w3.org/1999/xlink">
    <!-- Generator: Sketch 48.2 (47327) - http://www.bohemiancoding.com/sketch -->
    <title>zigzag-1</title>
    <desc>Created with Sketch.</desc>
    <defs></defs>
    <g id="Artboard-Copy" stroke="none" stroke-width="1" fill="none" fill-rule="evenodd" transform="translate(-665.000000, -3012.000000)">
        <path d="M681.857271,3024.90523 C679.689202,3024.24907 678.70605,3021.73752 679.852503,3019.78388 L690.887143,3000.98002 C691.865468,2999.31288 694.010042,2998.75449 695.677182,2999.73282 C697.344321,3000.71114 697.902716,3002.85571 696.92439,3004.52285 L688.139494,3019.49298 L703.660896,3024.19051 C705.547801,3024.76158 706.590982,3026.77766 705.967244,3028.64781 L700.111321,3046.20563 L717.21202,3054.08051 C718.967795,3054.88904 719.735685,3056.96783 718.92715,3058.7236 C718.118615,3060.47938 716.03983,3061.24727 714.284055,3060.43873 L694.334975,3051.25217 C692.713814,3050.50563 691.914065,3048.65881 692.478754,3046.9657 L698.187987,3029.84771 L681.857271,3024.90523 Z" id="zigzag-1" fill="#ACE97F" fill-rule="nonzero" transform="translate(699.309099, 3030.005672) rotate(104.000000) translate(-699.309099, -3030.005672) "></path>
    </g>
</svg>