<?xml version="1.0" encoding="UTF-8"?>
<svg width="39px" height="35px" viewBox="0 0 39 35" version="1.1" xmlns="http://www.w3.org/2000/svg" xmlns:xlink="http://www.w3.org/1999/xlink">
    <!-- Generator: Sketch 48.2 (47327) - http://www.bohemiancoding.com/sketch -->
    <title>square-2</title>
    <desc>Created with Sketch.</desc>
    <defs></defs>
    <g id="Artboard-Copy" stroke="none" stroke-width="1" fill="none" fill-rule="evenodd" transform="translate(-830.000000, -3324.000000)">
        <polygon id="square-2" fill="#CE91C3" transform="translate(849.260177, 3342.183030) rotate(66.000000) translate(-849.260177, -3342.183030) " points="837.767333 3325.53822 860.75302 3326.3124 860.247185 3358.05366 847.118368 3358.82784 837.767333 3358.05366 837.767333 3348.07555"></polygon>
    </g>
</svg>