<?xml version="1.0" encoding="UTF-8"?>
<svg width="31px" height="30px" viewBox="0 0 31 30" version="1.1" xmlns="http://www.w3.org/2000/svg" xmlns:xlink="http://www.w3.org/1999/xlink">
    <!-- Generator: Sketch 48.2 (47327) - http://www.bohemiancoding.com/sketch -->
    <title>plus-1</title>
    <desc>Created with Sketch.</desc>
    <defs></defs>
    <g id="Artboard-Copy" stroke="none" stroke-width="1" fill="none" fill-rule="evenodd" transform="translate(-826.000000, -3199.000000)">
        <path d="M847.06172,3206.07173 C848.66952,3204.94743 850.387791,3204.29072 852.360665,3204.60408 C852.87477,3204.68609 853.350622,3205.00863 853.899918,3205.24579 C853.584723,3206.84472 852.459508,3207.57548 851.421813,3208.31665 C848.955643,3210.07654 849.052291,3210.06144 846.57235,3211.80144 C845.913195,3212.26413 845.318609,3212.81771 844.57071,3213.43158 C845.318609,3215.25267 846.017852,3216.9789 846.736374,3218.69595 C848.09722,3221.94398 847.365684,3220.23267 848.259259,3223.59992 C848.641834,3225.04157 848.608728,3225.75947 847.320101,3226.3822 C846.215083,3226.91681 845.657525,3226.5753 844.883308,3225.14682 C842.660726,3221.04868 842.97668,3221.80169 840.715234,3217.72466 C840.525199,3217.38039 840.245502,3217.08417 839.90399,3216.62545 C835.849299,3219.09254 836.016429,3218.65654 831.777105,3221.73984 C831.062455,3222.25962 830.60507,3223.31062 829.569211,3222.46969 C828.879454,3221.90999 829.063063,3219.97567 829.815858,3219.34191 C832.384849,3217.18329 831.495326,3217.81309 834.074415,3215.6661 C835.260833,3214.6792 836.441131,3213.68496 837.78943,3212.55454 C837.307151,3211.69158 836.863737,3210.93664 836.456125,3210.16182 C835.274298,3207.91689 834.025759,3205.70227 832.970927,3203.39951 C832.473042,3202.31438 832.096032,3201.00648 833.700772,3200.04253 C838.326179,3201.29688 839.1922,3206.0447 842.050987,3209.56386 C844.695869,3207.76786 844.59096,3207.79795 847.06172,3206.07173 Z" id="plus-1" fill="#CE91C3" transform="translate(841.519794, 3213.331859) scale(-1, -1) rotate(33.000000) translate(-841.519794, -3213.331859) "></path>
    </g>
</svg>