<?xml version="1.0" encoding="UTF-8"?>
<svg width="66px" height="31px" viewBox="0 0 66 31" version="1.1" xmlns="http://www.w3.org/2000/svg" xmlns:xlink="http://www.w3.org/1999/xlink">
    <!-- Generator: Sketch 48.2 (47327) - http://www.bohemiancoding.com/sketch -->
    <title>zigzag-1</title>
    <desc>Created with Sketch.</desc>
    <defs></defs>
    <g id="Artboard-Copy" stroke="none" stroke-width="1" fill="none" fill-rule="evenodd" transform="translate(-671.000000, -3188.000000)">
        <path d="M688.251143,3200.91304 C686.083074,3200.25688 685.099922,3197.74533 686.246375,3195.79169 L697.281015,3176.98784 C698.25934,3175.3207 700.403913,3174.7623 702.071053,3175.74063 C703.738193,3176.71895 704.296587,3178.86353 703.318262,3180.53067 L694.533366,3195.50079 L710.054768,3200.19832 C711.941673,3200.76939 712.984854,3202.78547 712.361115,3204.65563 L706.505192,3222.21344 L723.605892,3230.08832 C725.361667,3230.89685 726.129557,3232.97564 725.321021,3234.73141 C724.512486,3236.48719 722.433702,3237.25508 720.677927,3236.44654 L700.728847,3227.25998 C699.107686,3226.51344 698.307936,3224.66662 698.872626,3222.97351 L704.581858,3205.85552 L688.251143,3200.91304 Z" id="zigzag-1" fill="#F6E390" fill-rule="nonzero" transform="translate(705.702970, 3206.013484) rotate(104.000000) translate(-705.702970, -3206.013484) "></path>
    </g>
</svg>