<?xml version="1.0" encoding="UTF-8"?>
<svg width="50px" height="47px" viewBox="0 0 50 47" version="1.1" xmlns="http://www.w3.org/2000/svg" xmlns:xlink="http://www.w3.org/1999/xlink">
    <!-- Generator: Sketch 48.2 (47327) - http://www.bohemiancoding.com/sketch -->
    <title>triangle-1</title>
    <desc>Created with Sketch.</desc>
    <defs></defs>
    <g id="Artboard-Copy" stroke="none" stroke-width="1" fill="none" fill-rule="evenodd" transform="translate(-680.000000, -3251.000000)">
        <path d="M683.017696,3271.59815 C682.054349,3270.47235 681.383863,3269.12611 681.065756,3267.67894 C679.998635,3262.82428 683.069044,3258.02372 687.923706,3256.9566 L700.637114,3254.16305 L703.458706,3253.46588 C707.966923,3252.35196 712.561615,3251.62302 717.19323,3251.28692 L720.813524,3251.0242 C721.803732,3250.95234 722.798664,3251.06543 723.747487,3251.35768 C727.97,3252.65828 730.338679,3257.13565 729.038079,3261.35816 L726.753566,3268.77504 L722.654246,3277.73961 L717.018393,3291.7989 C716.533837,3293.00768 715.792725,3294.0969 714.846223,3294.99137 C711.233612,3298.4054 705.537401,3298.24441 702.123381,3294.63179 L698.810739,3291.12646 L690.737554,3280.61991 L683.017696,3271.59815 Z M723.303926,3259.59196 C723.629076,3258.53633 723.036907,3257.41699 721.981278,3257.09184 C721.744073,3257.01877 721.495339,3256.9905 721.247787,3257.00846 L717.627494,3257.27118 C713.334778,3257.58269 709.076282,3258.2583 704.897935,3259.2907 L702.000793,3260.00551 L689.211835,3262.8167 C687.593615,3263.17241 686.570145,3264.77259 686.925852,3266.39081 C687.031887,3266.8732 687.255383,3267.32195 687.576499,3267.69722 L695.347684,3276.77895 L695.447115,3276.90154 L703.381848,3287.22791 L706.484189,3290.51071 C707.622195,3291.71491 709.520932,3291.76857 710.725136,3290.63057 C711.040637,3290.33241 711.287674,3289.96934 711.449193,3289.56641 L717.11164,3275.44078 L717.167959,3275.30944 L721.134465,3266.6353 L723.303926,3259.59196 Z" id="triangle-1" fill="#F6E390" fill-rule="nonzero"></path>
    </g>
</svg>