<?xml version="1.0" encoding="UTF-8"?>
<svg width="79px" height="96px" viewBox="0 0 79 96" version="1.1" xmlns="http://www.w3.org/2000/svg" xmlns:xlink="http://www.w3.org/1999/xlink">
    <!-- Generator: Sketch 48.2 (47327) - http://www.bohemiancoding.com/sketch -->
    <title>tree-5</title>
    <desc>Created with Sketch.</desc>
    <defs>
        <path d="M38.7971238,81.8073308 C44.2024349,81.8073308 49.3493192,78.487877 54.0236426,76.3791988 C58.6725203,74.2819997 64.7122351,71.5829385 65.3835934,68.8025039 C65.4570604,68.4982401 67.3566025,65.3546808 71.0822197,59.371826 C75.398764,52.3647658 77.5570361,46.2129163 77.5570361,40.9162773 C77.5570361,33.0208632 74.7559833,25.8635454 71.0822197,19.8077617 C68.05242,14.8134799 64.6465419,10.5684077 59.8233898,7.2764082 C53.7667973,3.14253487 46.5476199,0.0252238106 38.7971238,0.0252238106 C32.8286429,0.0252238106 27.4453234,4.60290123 22.6947337,7.46108243 C16.7849895,11.0166663 11.854421,13.4824548 7.99460429,19.5231615 C3.82889475,26.0425977 0.0372115326,32.4624614 0.0372115326,40.9162773 C0.0372115326,47.1076748 2.27949376,51.5064275 4.9565754,56.4045485 C7.59371348,61.2295867 10.6352136,66.5719949 14.6724006,70.2917508 C21.4858129,76.5694462 29.0404849,81.8073308 38.7971238,81.8073308 Z" id="path-1"></path>
    </defs>
    <g id="Artboard-Copy" stroke="none" stroke-width="1" fill="none" fill-rule="evenodd" transform="translate(-632.000000, -4374.000000)">
        <g id="tree-5" transform="translate(671.037855, 4422.000000) scale(-1, 1) translate(-671.037855, -4422.000000) translate(632.037855, 4374.500000)">
            <path d="M39,81 C44.4387928,81 49.6175581,77.7122912 54.3208353,75.6237789 C58.9985092,73.5466359 65.0756354,70.8733866 65.7511522,68.1195422 C65.8250743,67.8181881 67.7363825,64.7046916 71.4850771,58.7790527 C75.828359,51.8390032 78,45.7459856 78,40.5 C78,32.6800921 75.1815968,25.5912219 71.4850771,19.5933516 C68.4365102,14.6468315 65.0095353,10.4423562 60.1565075,7.18183913 C54.062399,3.08749928 46.7985044,0 39,0 C32.9945489,0 27.5778839,4.5338997 22.797868,7.36474726 C16.8515175,10.886328 11.890408,13.3285355 8.00668266,19.311473 C3.81516977,25.7685619 0,32.1270305 0,40.5 C0,46.6321873 2.25617143,50.9888734 4.94983553,55.8401521 C7.60330864,60.6190471 10.6636485,65.9103643 14.7258428,69.594547 C21.5814589,75.8122069 29.1829263,81 39,81 Z" id="Mask" fill="#ACE97F"></path>
            <g id="Path-4">
                <mask id="mask-2" fill="white">
                    <use xlink:href="#path-1"></use>
                </mask>
                <g id="Mask"></g>
            </g>
            <polygon id="Path-14" fill="#4A4A4A" points="39.7510765 37 38.0855347 37.5969997 38.0855347 46.950619 37 95 41 95 41 44.1485382"></polygon>
            <path d="M51.6582625,60.1437789 L40.8497023,50.876511 C40.5928565,50.6424787 40.0047288,50.3503084 39.085319,50 C38.93271,50.7358897 38.9848283,51.2208506 39.2416741,51.4548829 L50.5757916,61.782286 C50.9610602,62.1333344 51.5157015,62.0511231 51.8146175,61.5986618 C52.1135336,61.1462006 52.043531,60.4948273 51.6582625,60.1437789 Z" id="Path-16" fill="#4A4A4A" fill-rule="nonzero" transform="translate(45.500000, 56.000000) scale(1, -1) translate(-45.500000, -56.000000) "></path>
            <path d="M38.7634125,64.7625193 L31.2805631,58.5843406 C31.1027468,58.4283191 30.6955815,58.2335389 30.059067,58 C29.9534146,58.4905931 29.9894965,58.8139004 30.1673128,58.9699219 L38.0140096,65.8548573 C38.280734,66.0888896 38.6647164,66.034082 38.8716583,65.7324412 C39.0786002,65.4308004 39.0301369,64.9965516 38.7634125,64.7625193 Z" id="Path-16" fill="#4A4A4A" fill-rule="nonzero" transform="translate(34.500000, 62.000000) scale(-1, -1) translate(-34.500000, -62.000000) "></path>
        </g>
    </g>
</svg>